Src/VCDParser/VCDParser/test.vcd
$timescale 1 s $end
$comment module tb defname // $end
$scope module tb $end
$comment module dut defname // $end
$scope module dut $end
$var parameter 32 ! DSIZ[31:0] $end
$var parameter 3 " FSM_ISRH[2:0] $end
$var parameter 3 # FSM_ISRL[2:0] $end
$var parameter 2 $ FSM_Q0[1:0] $end
$var parameter 2 % FSM_Q1[1:0] $end
$var parameter 2 & FSM_Q2[1:0] $end
$var parameter 2 ' FSM_Q3[1:0] $end
$var parameter 3 ( FSM_RUN[2:0] $end
$var parameter 3 ) FSM_SLEEP[2:0] $end
$var parameter 32 * ISIZ[31:0] $end
$var parameter 4 + MXALU_ADD[3:0] $end
$var parameter 4 , MXALU_ADDC[3:0] $end
$var parameter 4 - MXALU_AND[3:0] $end
$var parameter 4 . MXALU_DAW[3:0] $end
$var parameter 4 / MXALU_IOR[3:0] $end
$var parameter 4 0 MXALU_LFSR[3:0] $end
$var parameter 4 1 MXALU_MOVLB[3:0] $end
$var parameter 4 2 MXALU_MUL[3:0] $end
$var parameter 4 3 MXALU_NEG[3:0] $end
$var parameter 4 4 MXALU_RLC[3:0] $end
$var parameter 4 5 MXALU_RLNC[3:0] $end
$var parameter 4 6 MXALU_RRC[3:0] $end
$var parameter 4 7 MXALU_RRNC[3:0] $end
$var parameter 4 8 MXALU_SUB[3:0] $end
$var parameter 4 9 MXALU_SUBC[3:0] $end
$var parameter 4 : MXALU_SWAP[3:0] $end
$var parameter 4 ; MXALU_XOR[3:0] $end
$var parameter 3 < MXBCC_BC[2:0] $end
$var parameter 3 = MXBCC_BN[2:0] $end
$var parameter 3 > MXBCC_BNC[2:0] $end
$var parameter 3 ? MXBCC_BNN[2:0] $end
$var parameter 3 @ MXBCC_BNOV[2:0] $end
$var parameter 3 A MXBCC_BNZ[2:0] $end
$var parameter 3 B MXBCC_BOV[2:0] $end
$var parameter 3 C MXBCC_BZ[2:0] $end
$var parameter 2 D MXBSR_BSA[1:0] $end
$var parameter 2 E MXBSR_BSR[1:0] $end
$var parameter 2 F MXBSR_LIT[1:0] $end
$var parameter 2 G MXBSR_NUL[1:0] $end
$var parameter 2 H MXDST_EXT[1:0] $end
$var parameter 2 I MXDST_FILE[1:0] $end
$var parameter 2 J MXDST_NULL[1:0] $end
$var parameter 2 K MXDST_WREG[1:0] $end
$var parameter 4 L MXFSR_INDF0[3:0] $end
$var parameter 4 M MXFSR_INDF1[3:0] $end
$var parameter 4 N MXFSR_INDF2[3:0] $end
$var parameter 4 O MXFSR_NORM[3:0] $end
$var parameter 4 P MXFSR_PLUSW0[3:0] $end
$var parameter 4 Q MXFSR_PLUSW1[3:0] $end
$var parameter 4 R MXFSR_PLUSW2[3:0] $end
$var parameter 4 S MXFSR_POSTDEC0[3:0] $end
$var parameter 4 T MXFSR_POSTDEC1[3:0] $end
$var parameter 4 U MXFSR_POSTDEC2[3:0] $end
$var parameter 4 V MXFSR_POSTINC0[3:0] $end
$var parameter 4 W MXFSR_POSTINC1[3:0] $end
$var parameter 4 X MXFSR_POSTINC2[3:0] $end
$var parameter 4 Y MXFSR_PREINC0[3:0] $end
$var parameter 4 Z MXFSR_PREINC1[3:0] $end
$var parameter 4 [ MXFSR_PREINC2[3:0] $end
$var parameter 3 \ MXNPC_BCC[2:0] $end
$var parameter 3 ] MXNPC_FAR[2:0] $end
$var parameter 3 ^ MXNPC_INC[2:0] $end
$var parameter 3 _ MXNPC_ISRH[2:0] $end
$var parameter 3 ` MXNPC_ISRL[2:0] $end
$var parameter 3 a MXNPC_NEAR[2:0] $end
$var parameter 3 b MXNPC_RESET[2:0] $end
$var parameter 3 c MXNPC_RET[2:0] $end
$var parameter 2 d MXSHA_CALL[1:0] $end
$var parameter 2 e MXSHA_NONE[1:0] $end
$var parameter 2 f MXSHA_RET[1:0] $end
$var parameter 3 g MXSKP_NON[2:0] $end
$var parameter 3 h MXSKP_SCC[2:0] $end
$var parameter 3 i MXSKP_SNC[2:0] $end
$var parameter 3 j MXSKP_SNZ[2:0] $end
$var parameter 3 k MXSKP_SU[2:0] $end
$var parameter 3 l MXSKP_SZ[2:0] $end
$var parameter 2 m MXSRC_FILE[1:0] $end
$var parameter 2 n MXSRC_LIT[1:0] $end
$var parameter 2 o MXSRC_MASK[1:0] $end
$var parameter 2 p MXSRC_WREG[1:0] $end
$var parameter 3 q MXSTA_ALL[2:0] $end
$var parameter 3 r MXSTA_C[2:0] $end
$var parameter 3 s MXSTA_CZN[2:0] $end
$var parameter 3 t MXSTA_NONE[2:0] $end
$var parameter 3 u MXSTA_Z[2:0] $end
$var parameter 3 v MXSTA_ZN[2:0] $end
$var parameter 2 w MXSTK_NONE[1:0] $end
$var parameter 2 x MXSTK_POP[1:0] $end
$var parameter 2 y MXSTK_PUSH[1:0] $end
$var parameter 4 z MXTBL_NOP[3:0] $end
$var parameter 4 { MXTBL_RD[3:0] $end
$var parameter 4 | MXTBL_RDDEC[3:0] $end
$var parameter 4 } MXTBL_RDINC[3:0] $end
$var parameter 4 ~ MXTBL_RDPRE[3:0] $end
$var parameter 4 !" MXTBL_WT[3:0] $end
$var parameter 4 "" MXTBL_WTDEC[3:0] $end
$var parameter 4 #" MXTBL_WTINC[3:0] $end
$var parameter 4 $" MXTBL_WTPRE[3:0] $end
$var parameter 2 %" MXTGT_FILE[1:0] $end
$var parameter 2 &" MXTGT_LIT[1:0] $end
$var parameter 2 '" MXTGT_MASK[1:0] $end
$var parameter 2 (" MXTGT_WREG[1:0] $end
$var parameter 32 )" WSIZ[31:0] $end
$var parameter 16 *" aBSR[15:0] $end
$var parameter 16 +" aFSR0H[15:0] $end
$var parameter 16 ," aFSR0L[15:0] $end
$var parameter 16 -" aFSR1H[15:0] $end
$var parameter 16 ." aFSR1L[15:0] $end
$var parameter 16 /" aFSR2H[15:0] $end
$var parameter 16 0" aFSR2L[15:0] $end
$var parameter 16 1" aINDF0[15:0] $end
$var parameter 16 2" aINDF1[15:0] $end
$var parameter 16 3" aINDF2[15:0] $end
$var parameter 16 4" aPCL[15:0] $end
$var parameter 16 5" aPCLATH[15:0] $end
$var parameter 16 6" aPCLATU[15:0] $end
$var parameter 16 7" aPLUSW0[15:0] $end
$var parameter 16 8" aPLUSW1[15:0] $end
$var parameter 16 9" aPLUSW2[15:0] $end
$var parameter 16 :" aPOSTDEC0[15:0] $end
$var parameter 16 ;" aPOSTDEC1[15:0] $end
$var parameter 16 <" aPOSTDEC2[15:0] $end
$var parameter 16 =" aPOSTINC0[15:0] $end
$var parameter 16 >" aPOSTINC1[15:0] $end
$var parameter 16 ?" aPOSTINC2[15:0] $end
$var parameter 16 @" aPREINC0[15:0] $end
$var parameter 16 A" aPREINC1[15:0] $end
$var parameter 16 B" aPREINC2[15:0] $end
$var parameter 16 C" aPRNG[15:0] $end
$var parameter 16 D" aPRODH[15:0] $end
$var parameter 16 E" aPRODL[15:0] $end
$var parameter 16 F" aSTATUS[15:0] $end
$var parameter 16 G" aSTKPTR[15:0] $end
$var parameter 16 H" aTABLAT[15:0] $end
$var parameter 16 I" aTBLPTRH[15:0] $end
$var parameter 16 J" aTBLPTRL[15:0] $end
$var parameter 16 K" aTBLPTRU[15:0] $end
$var parameter 16 L" aTOSH[15:0] $end
$var parameter 16 M" aTOSL[15:0] $end
$var parameter 16 N" aTOSU[15:0] $end
$var parameter 16 O" aWDTCON[15:0] $end
$var parameter 16 P" aWREG[15:0] $end
$var reg 1 Q" clk $end
$var reg 1 R" clk_i $end
$var reg 1 S" dwb_ack_i $end
$var reg 16 T" dwb_adr_o[15:0] $end
$var reg 8 U" dwb_dat_i[7:0] $end
$var reg 8 V" dwb_dat_o[7:0] $end
$var reg 1 W" dwb_stb_o $end
$var reg 1 X" dwb_we_o $end
$var reg 1 Y" fADDLW $end
$var reg 1 Z" fADDWF $end
$var reg 1 [" fADDWFC $end
$var reg 1 \" fANDLW $end
$var reg 1 ]" fANDWF $end
$var reg 1 ^" fBC $end
$var reg 1 _" fBCF $end
$var reg 1 `" fBN $end
$var reg 1 a" fBNC $end
$var reg 1 b" fBNN $end
$var reg 1 c" fBNOV $end
$var reg 1 d" fBNZ $end
$var reg 1 e" fBOV $end
$var reg 1 f" fBRA $end
$var reg 1 g" fBSF $end
$var reg 1 h" fBTFSC $end
$var reg 1 i" fBTFSS $end
$var reg 1 j" fBTG $end
$var reg 1 k" fBZ $end
$var reg 1 l" fCALL $end
$var reg 1 m" fCLRF $end
$var reg 1 n" fCLRWDT $end
$var reg 1 o" fCOMF $end
$var reg 1 p" fCPFSEQ $end
$var reg 1 q" fCPFSGT $end
$var reg 1 r" fCPFSLT $end
$var reg 1 s" fDAW $end
$var reg 1 t" fDCFSNZ $end
$var reg 1 u" fDECF $end
$var reg 1 v" fDECFSZ $end
$var reg 1 w" fGFF $end
$var reg 1 x" fGFSR0 $end
$var reg 1 y" fGFSR1 $end
$var reg 1 z" fGFSR2 $end
$var reg 1 {" fGINDF $end
$var reg 1 |" fGOTO $end
$var reg 1 }" fGPLUSW $end
$var reg 1 ~" fGPOSTDEC $end
$var reg 1 !# fGPOSTINC $end
$var reg 1 "# fGPREINC $end
$var reg 1 ## fINCF $end
$var reg 1 $# fINCFSZ $end
$var reg 1 %# fINDF0 $end
$var reg 1 &# fINDF1 $end
$var reg 1 '# fINDF2 $end
$var reg 1 (# fINFSNZ $end
$var reg 1 )# fINT $end
$var reg 1 *# fINTH $end
$var reg 1 +# fINTL $end
$var reg 1 ,# fIORLW $end
$var reg 1 -# fIORWF $end
$var reg 1 .# fLFSR $end
$var reg 1 /# fMISC $end
$var reg 1 0# fMOVF $end
$var reg 1 1# fMOVFF $end
$var reg 1 2# fMOVLB $end
$var reg 1 3# fMOVLW $end
$var reg 1 4# fMOVWF $end
$var reg 1 5# fMULLW $end
$var reg 1 6# fMULWF $end
$var reg 1 7# fNEGF $end
$var reg 1 8# fNOP $end
$var reg 1 9# fNOP0 $end
$var reg 1 :# fNOPF $end
$var reg 1 ;# fOP1G0 $end
$var reg 1 <# fOP1G1 $end
$var reg 1 =# fOP2G0 $end
$var reg 1 ># fOP2G1 $end
$var reg 1 ?# fOP2G2 $end
$var reg 1 @# fOP2G3 $end
$var reg 1 A# fOP3G0 $end
$var reg 1 B# fOP3G1 $end
$var reg 1 C# fOP3G2 $end
$var reg 1 D# fOP3G3 $end
$var reg 1 E# fOP3G4 $end
$var reg 1 F# fOP3G5 $end
$var reg 1 G# fOP3G6 $end
$var reg 1 H# fOP3G7 $end
$var reg 1 I# fOP4G0 $end
$var reg 1 J# fOP4G1 $end
$var reg 1 K# fOP4G2 $end
$var reg 1 L# fOP4G3 $end
$var reg 1 M# fOP4G4 $end
$var reg 1 N# fOP4G5 $end
$var reg 1 O# fOP4G6 $end
$var reg 1 P# fOP4G7 $end
$var reg 1 Q# fOP4G8 $end
$var reg 1 R# fOP4G9 $end
$var reg 1 S# fOP4GA $end
$var reg 1 T# fOP4GB $end
$var reg 1 U# fOP4GC $end
$var reg 1 V# fOP4GD $end
$var reg 1 W# fOP4GE $end
$var reg 1 X# fOP4GF $end
$var reg 1 Y# fOPC0 $end
$var reg 1 Z# fOPC1 $end
$var reg 1 [# fOPC2 $end
$var reg 1 \# fOPC3 $end
$var reg 1 ]# fOPC4 $end
$var reg 1 ^# fOPC5 $end
$var reg 1 _# fOPC6 $end
$var reg 1 `# fOPC7 $end
$var reg 1 a# fOPC8 $end
$var reg 1 b# fOPC9 $end
$var reg 1 c# fOPCA $end
$var reg 1 d# fOPCB $end
$var reg 1 e# fOPCC $end
$var reg 1 f# fOPCD $end
$var reg 1 g# fOPCE $end
$var reg 1 h# fOPCF $end
$var reg 4 i# fOPCH[3:0] $end
$var reg 8 j# fOPCK[7:0] $end
$var reg 4 k# fOPCL[3:0] $end
$var reg 1 l# fPLUSW0 $end
$var reg 1 m# fPLUSW1 $end
$var reg 1 n# fPLUSW2 $end
$var reg 1 o# fPOP $end
$var reg 1 p# fPOSTDEC0 $end
$var reg 1 q# fPOSTDEC1 $end
$var reg 1 r# fPOSTDEC2 $end
$var reg 1 s# fPOSTINC0 $end
$var reg 1 t# fPOSTINC1 $end
$var reg 1 u# fPOSTINC2 $end
$var reg 1 v# fPREINC0 $end
$var reg 1 w# fPREINC1 $end
$var reg 1 x# fPREINC2 $end
$var reg 1 y# fPUSH $end
$var reg 1 z# fRCALL $end
$var reg 1 {# fRESET $end
$var reg 1 |# fRETFIE $end
$var reg 1 }# fRETLW $end
$var reg 1 ~# fRETURN $end
$var reg 1 !$ fRLCF $end
$var reg 1 "$ fRLNCF $end
$var reg 1 #$ fRRCF $end
$var reg 1 $$ fRRNCF $end
$var reg 1 %$ fSETF $end
$var reg 1 &$ fSLEEP $end
$var reg 1 '$ fSUBFWB $end
$var reg 1 ($ fSUBLW $end
$var reg 1 )$ fSUBWF $end
$var reg 1 *$ fSUBWFB $end
$var reg 1 +$ fSWAPF $end
$var reg 1 ,$ fTBLRDWT $end
$var reg 1 -$ fTSTFSZ $end
$var reg 1 .$ fXORLW $end
$var reg 1 /$ fXORWF $end
$var reg 2 0$ int_i[1:0] $end
$var reg 2 1$ inte_i[7:6] $end
$var reg 1 2$ inth $end
$var reg 1 3$ intl $end
$var reg 1 4$ isrh $end
$var reg 1 5$ isrl $end
$var reg 1 6$ iwb_ack_i $end
$var reg 16 7$ iwb_adr_o[15:0] $end
$var reg 16 8$ iwb_dat_i[15:0] $end
$var reg 16 9$ iwb_dat_o[15:0] $end
$var reg 2 :$ iwb_sel_o[1:0] $end
$var reg 1 ;$ iwb_stb_o $end
$var reg 1 <$ iwb_we_o $end
$var reg 4 =$ qena[3:0] $end
$var reg 2 >$ qfsm[1:0] $end
$var reg 1 ?$ qrst $end
$var reg 1 @$ qrun $end
$var reg 1 A$ rBCC $end
$var reg 8 B$ rBSR[7:0] $end
$var reg 8 C$ rBSR_[7:0] $end
$var reg 1 D$ rC $end
$var reg 1 E$ rCLRWDT $end
$var reg 1 F$ rCLRWDT_ $end
$var reg 1 G$ rC_ $end
$var reg 1 H$ rDC $end
$var reg 16 I$ rDWBADR[15:0] $end
$var reg 1 J$ rDWBSTB $end
$var reg 1 K$ rDWBWE $end
$var reg 16 L$ rEAPTR[15:0] $end
$var reg 2 M$ rFSM[1:0] $end
$var reg 8 N$ rFSR0H[7:0] $end
$var reg 8 O$ rFSR0L[7:0] $end
$var reg 8 P$ rFSR1H[7:0] $end
$var reg 8 Q$ rFSR1L[7:0] $end
$var reg 8 R$ rFSR2H[7:0] $end
$var reg 8 S$ rFSR2L[7:0] $end
$var reg 8 T$ rILAT[7:0] $end
$var reg 2 U$ rINTF[1:0] $end
$var reg 3 V$ rINTH[2:0] $end
$var reg 3 W$ rINTL[2:0] $end
$var reg 16 X$ rIREG[15:0] $end
$var reg 24 Y$ rIWBADR[23:0] $end
$var reg 2 Z$ rIWBSEL[1:0] $end
$var reg 1 [$ rIWBSTB $end
$var reg 1 \$ rIWBWE $end
$var reg 8 ]$ rMASK[7:0] $end
$var reg 4 ^$ rMXALU[3:0] $end
$var reg 3 _$ rMXBCC[2:0] $end
$var reg 2 `$ rMXBSR[1:0] $end
$var reg 2 a$ rMXDST[1:0] $end
$var reg 4 b$ rMXFSR[3:0] $end
$var reg 3 c$ rMXNPC[2:0] $end
$var reg 2 d$ rMXSHA[1:0] $end
$var reg 3 e$ rMXSKP[2:0] $end
$var reg 2 f$ rMXSRC[1:0] $end
$var reg 3 g$ rMXSTA[2:0] $end
$var reg 3 h$ rMXSTAL[2:0] $end
$var reg 2 i$ rMXSTK[1:0] $end
$var reg 4 j$ rMXTBL[3:0] $end
$var reg 2 k$ rMXTGT[1:0] $end
$var reg 1 l$ rN $end
$var reg 1 m$ rNSKP $end
$var reg 2 n$ rNXT[1:0] $end
$var reg 1 o$ rOV $end
$var reg 8 p$ rPCH[7:0] $end
$var reg 8 q$ rPCL[7:0] $end
$var reg 8 r$ rPCLATH[7:0] $end
$var reg 8 s$ rPCLATU[7:0] $end
$var reg 15 t$ rPCNXT[14:0] $end
$var reg 5 u$ rPCU[4:0] $end
$var reg 8 v$ rPRNG[7:0] $end
$var reg 8 w$ rPRODH[7:0] $end
$var reg 8 x$ rPRODL[7:0] $end
$var reg 4 y$ rQCLK[3:0] $end
$var reg 2 z$ rQCNT[1:0] $end
$var reg 1 {$ rRESET $end
$var reg 1 |$ rRESET_ $end
$var reg 8 }$ rRESULT[7:0] $end
$var reg 16 ~$ rROMLAT[15:0] $end
$var reg 8 !% rSFRDAT[7:0] $end
$var reg 1 "% rSFRSTB $end
$var reg 1 #% rSLEEP $end
$var reg 1 $% rSLEEP_ $end
$var reg 8 %% rSRC[7:0] $end
$var reg 5 &% rSTATUS_[4:0] $end
$var reg 1 '% rSTKFUL $end
$var reg 6 (% rSTKPTR[5:0] $end
$var reg 6 )% rSTKPTR_[5:0] $end
$var reg 1 *% rSTKUNF $end
$var reg 1 +% rSWDTEN $end
$var reg 8 ,% rTABLAT[7:0] $end
$var reg 8 -% rTBLPTRH[7:0] $end
$var reg 8 .% rTBLPTRL[7:0] $end
$var reg 8 /% rTBLPTRU[7:0] $end
$var reg 8 0% rTGT[7:0] $end
$var reg 8 1% rTOSH[7:0] $end
$var reg 8 2% rTOSL[7:0] $end
$var reg 8 3% rTOSU[7:0] $end
$var reg 33 4% rWDT[32:0] $end
$var reg 8 5% rWREG[7:0] $end
$var reg 8 6% rWREG_[7:0] $end
$var reg 1 7% rZ $end
$var reg 1 8% rst_i $end
$var reg 9 9% wADD[8:0] $end
$var reg 9 :% wADDC[8:0] $end
$var reg 9 ;% wAND[8:0] $end
$var reg 1 <% wC $end
$var reg 8 =% wDAW[7:0] $end
$var reg 1 >% wDC $end
$var reg 16 ?% wFILEBSA[15:0] $end
$var reg 16 @% wFILEBSR[15:0] $end
$var reg 16 A% wFILELIT[15:0] $end
$var reg 16 B% wFSRDEC0[15:0] $end
$var reg 16 C% wFSRDEC1[15:0] $end
$var reg 16 D% wFSRDEC2[15:0] $end
$var reg 16 E% wFSRINC0[15:0] $end
$var reg 16 F% wFSRINC1[15:0] $end
$var reg 16 G% wFSRINC2[15:0] $end
$var reg 16 H% wFSRPLUSW0[15:0] $end
$var reg 16 I% wFSRPLUSW1[15:0] $end
$var reg 16 J% wFSRPLUSW2[15:0] $end
$var reg 9 K% wIOR[8:0] $end
$var reg 1 L% wISTB $end
$var reg 1 M% wIWE $end
$var reg 8 N% wMASK[7:0] $end
$var reg 4 O% wMXALU[3:0] $end
$var reg 3 P% wMXBCC[2:0] $end
$var reg 2 Q% wMXBSR[1:0] $end
$var reg 2 R% wMXDST[1:0] $end
$var reg 4 S% wMXFSR[3:0] $end
$var reg 3 T% wMXNPC[2:0] $end
$var reg 2 U% wMXSHA[1:0] $end
$var reg 3 V% wMXSKP[2:0] $end
$var reg 2 W% wMXSRC[1:0] $end
$var reg 3 X% wMXSTA[2:0] $end
$var reg 2 Y% wMXSTK[1:0] $end
$var reg 4 Z% wMXTBL[3:0] $end
$var reg 2 [% wMXTGT[1:0] $end
$var reg 1 \% wN $end
$var reg 9 ]% wNEG[8:0] $end
$var reg 1 ^% wOV $end
$var reg 15 _% wPCBCC[14:0] $end
$var reg 15 `% wPCFAR[14:0] $end
$var reg 15 a% wPCINC[14:0] $end
$var reg 15 b% wPCLAT[14:0] $end
$var reg 15 c% wPCNEAR[14:0] $end
$var reg 15 d% wPCSTK[14:0] $end
$var reg 16 e% wPRODUCT[15:0] $end
$var reg 9 f% wRLC[8:0] $end
$var reg 9 g% wRLNC[8:0] $end
$var reg 9 h% wRRC[8:0] $end
$var reg 9 i% wRRNC[8:0] $end
$var reg 1 j% wSFRSTB $end
$var reg 1 k% wSKP $end
$var reg 6 l% wSTKDEC[5:0] $end
$var reg 1 m% wSTKE $end
$var reg 6 n% wSTKINC[5:0] $end
$var reg 16 o% wSTKR[15:0] $end
$var reg 16 p% wSTKW[15:0] $end
$var reg 9 q% wSUB[8:0] $end
$var reg 9 r% wSUBC[8:0] $end
$var reg 9 s% wSWAP[8:0] $end
$var reg 16 t% wTBLAT[15:0] $end
$var reg 16 u% wTBLDEC[15:0] $end
$var reg 16 v% wTBLINC[15:0] $end
$var reg 9 w% wXOR[8:0] $end
$var reg 1 x% wZ $end
$var reg 1 y% wb_clk_o $end
$var reg 1 z% wb_rst_o $end
$var reg 1 {% xrst $end
$var reg 1 |% xrun $end
$upscope $end
$upscope $end
$enddefinitions $end
#0
b10000 !
b10 "
b1 #
b0 $
b1 %
b10 &
b11 '
b0 (
b11 )
b10000 *
b100 +
b101 ,
b10 -
b1101 .
b1 /
b1110 0
b1100 1
b1111 2
b1100 3
b1001 4
b1000 5
b1011 6
b1010 7
b110 8
b111 9
b11 :
b0 ;
b10 <
b110 =
b11 >
b111 ?
b101 @
b1 A
b100 B
b0 C
b10 D
b11 E
b1 F
b0 G
b1 H
b11 I
b0 J
b10 K
b101 L
b1010 M
b1111 N
b0 O
b1 P
b110 Q
b1011 R
b11 S
b1000 T
b1101 U
b100 V
b1001 W
b1110 X
b10 Y
b111 Z
b1100 [
b111 \
b11 ]
b0 ^
b101 _
b110 `
b10 a
b100 b
b1 c
b10 d
b0 e
b1 f
b0 g
b111 h
b11 i
b10 j
b100 k
b1 l
b1 m
b11 n
b10 o
b0 p
b111 q
b100 r
b1 s
b0 t
b11 u
b10 v
b0 w
b1 x
b10 y
b0 z
b1000 {
b1010 |
b1001 }
b1011 ~
b1100 !"
b1110 ""
b1101 #"
b1111 $"
b1 %"
b11 &"
b10 '"
b0 ("
b100000 )"
b1111111111100000 *"
b1111111111101010 +"
b1111111111101001 ,"
b1111111111100010 -"
b1111111111100001 ."
b1111111111011010 /"
b1111111111011001 0"
b1111111111101111 1"
b1111111111100111 2"
b1111111111011111 3"
b1111111111111001 4"
b1111111111111010 5"
b1111111111111011 6"
b1111111111101011 7"
b1111111111100011 8"
b1111111111011011 9"
b1111111111101101 :"
b1111111111100101 ;"
b1111111111011101 <"
b1111111111101110 ="
b1111111111100110 >"
b1111111111011110 ?"
b1111111111101100 @"
b1111111111100100 A"
b1111111111011100 B"
b1111111111010100 C"
b1111111111110100 D"
b1111111111110011 E"
b1111111111011000 F"
b1111111111111100 G"
b1111111111110101 H"
b1111111111110111 I"
b1111111111110110 J"
b1111111111111000 K"
b1111111111111110 L"
b1111111111111101 M"
b1111111111111111 N"
b1111111111010001 O"
b1111111111101000 P"
0Q"
0R"
xS"
b0 T"
bx U"
b0 V"
0W"
0X"
0Y"
0Z"
0["
0\"
0]"
0^"
0_"
0`"
0a"
0b"
0c"
0d"
0e"
0f"
0g"
0h"
0i"
0j"
0k"
0l"
0m"
0n"
0o"
0p"
0q"
0r"
0s"
0t"
0u"
0v"
0w"
0x"
0y"
0z"
0{"
0|"
0}"
0~"
0!#
0"#
0##
0$#
0%#
0&#
0'#
0(#
0)#
0*#
0+#
0,#
0-#
0.#
1/#
00#
01#
02#
03#
04#
05#
06#
07#
18#
19#
0:#
1;#
0<#
1=#
0>#
0?#
0@#
1A#
0B#
0C#
0D#
0E#
0F#
0G#
0H#
1I#
0J#
0K#
0L#
0M#
0N#
0O#
0P#
0Q#
0R#
0S#
0T#
0U#
0V#
0W#
0X#
1Y#
0Z#
0[#
0\#
0]#
0^#
0_#
0`#
0a#
0b#
0c#
0d#
0e#
0f#
0g#
0h#
b0 i#
b0 j#
b0 k#
0l#
0m#
0n#
0o#
0p#
0q#
0r#
0s#
0t#
0u#
0v#
0w#
0x#
0y#
0z#
0{#
0|#
0}#
0~#
0!$
0"$
0#$
0$$
0%$
0&$
0'$
0($
0)$
0*$
0+$
0,$
0-$
0.$
0/$
b0 0$
bx 1$
02$
03$
04$
05$
x6$
b0 7$
bx 8$
b0 9$
b0 :$
0;$
0<$
b1000 =$
b11 >$
0?$
1@$
0A$
b0 B$
b0 C$
0D$
0E$
0F$
0G$
0H$
b0 I$
0J$
0K$
b0 L$
b0 M$
b0 N$
b0 O$
b0 P$
b0 Q$
b0 R$
b0 S$
b0 T$
b0 U$
b0 V$
b0 W$
b0 X$
b0 Y$
b0 Z$
0[$
0\$
b0 ]$
b0 ^$
b0 _$
b0 `$
b0 a$
b0 b$
b0 c$
b0 d$
b0 e$
b0 f$
b0 g$
b0 h$
b0 i$
b0 j$
b0 k$
0l$
1m$
b0 n$
0o$
b0 p$
b0 q$
b0 r$
b0 s$
b0 t$
b0 u$
b0 v$
b0 w$
b0 x$
b1000 y$
b11 z$
0{$
0|$
b0 }$
b0 ~$
b0 !%
0"%
0#%
0$%
b0 %%
b0 &%
0'%
b0 (%
b0 )%
0*%
1+%
b0 ,%
b0 -%
b0 .%
b0 /%
b0 0%
b0 1%
b0 2%
b0 3%
b0 4%
b0 5%
b0 6%
07%
08%
b0 9%
b0 :%
b0 ;%
0<%
b0 =%
0>%
b0 ?%
b0 @%
b0 A%
b1111111111111111 B%
b1111111111111111 C%
b1111111111111111 D%
b1 E%
b1 F%
b1 G%
b0 H%
b0 I%
b0 J%
b0 K%
0L%
0M%
b1 N%
b0 O%
b0 P%
b0 Q%
b0 R%
b0 S%
b0 T%
b0 U%
b0 V%
b0 W%
b0 X%
b0 Y%
b0 Z%
b0 [%
0\%
b0 ]%
0^%
b1 _%
b0 `%
b1 a%
b0 b%
b0 c%
b0 d%
b0 e%
b0 f%
b0 g%
b0 h%
b0 i%
0j%
0k%
b111111 l%
0m%
b1 n%
bx o%
b0 p%
b0 q%
b1 r%
b0 s%
b0 t%
b1111111111111111 u%
b1 v%
b0 w%
1x%
0y%
1z%
0{%
x|%
#1
x@$
xE$
xF$
bx M$
x#%
x$%
#5
1Q"
1R"
0S"
b100100 U"
06$
1y%
1|%
#10
0Q"
0R"
1@$
0E$
0F$
b0 M$
0#%
0$%
0y%
#15
1Q"
1R"
1y%
#20
0Q"
0R"
0y%
#25
1Q"
1R"
1y%
#30
0Q"
0R"
0y%
#35
1Q"
1R"
1y%
#40
0Q"
0R"
0y%
#45
1Q"
1R"
1y%
#50
0Q"
0R"
18%
0y%
1{%
#51
1|$
#55
1Q"
1R"
1y%
#60
0Q"
0R"
0y%
#61
1?$
1{$
0z%
#65
1Q"
1R"
1y%
#66
1*%
#70
0Q"
0R"
0y%
#71
b11 :$
1;$
b1 =$
b0 >$
b11 Z$
1[$
b1 y$
b0 z$
b1 4%
0|%
#75
1Q"
1R"
16$
b0 8$
1y%
1|%
#76
b1 )%
#80
0Q"
0R"
0y%
#81
b0 :$
0;$
b10 =$
b1 >$
b0 Z$
0[$
b10 y$
b1 z$
b10 4%
1m%
0|%
#85
1Q"
1R"
06$
1y%
1|%
#90
0Q"
0R"
b1 :$
b1 Z$
0y%
#91
b100 =$
b10 >$
b1 t$
b100 y$
b10 z$
b11 4%
0m%
#95
1Q"
1R"
1y%
#100
0Q"
0R"
0y%
#101
b0 :$
b1000 =$
b11 >$
b0 Z$
b1 ]$
b1000 y$
b11 z$
b100 4%
#105
1Q"
1R"
1y%
#110
0Q"
0R"
0y%
#111
b10 7$
b11 :$
1;$
b1 =$
b0 >$
b1 Y$
b11 Z$
1[$
b10 q$
b1 y$
b0 z$
b101 4%
b10 _%
b10 a%
b1 b%
b1 c%
0|%
#115
1Q"
1R"
16$
1y%
1|%
#120
0Q"
0R"
0y%
#121
b0 :$
0;$
b10 =$
b1 >$
b0 Z$
0[$
b10 y$
b1 z$
b110 4%
1m%
0|%
#125
1Q"
1R"
06$
1y%
1|%
#130
0Q"
0R"
b1 :$
b1 Z$
0y%
#131
b100 =$
b10 >$
b10 t$
b100 y$
b10 z$
b111 4%
0m%
#135
1Q"
1R"
1y%
#140
0Q"
0R"
0y%
#141
b0 :$
b1000 =$
b11 >$
b0 Z$
b1000 y$
b11 z$
b1000 4%
#145
1Q"
1R"
1y%
#150
0Q"
0R"
0y%
#151
b100 7$
b11 :$
1;$
b1 =$
b0 >$
b10 Y$
b11 Z$
1[$
b100 q$
b1 y$
b0 z$
b1001 4%
b11 _%
b11 a%
b10 b%
b10 c%
0|%
#155
1Q"
1R"
16$
1y%
1|%
#160
0Q"
0R"
0y%
#161
b0 :$
0;$
b10 =$
b1 >$
b0 Z$
0[$
b10 y$
b1 z$
b1010 4%
1m%
0|%
#165
1Q"
1R"
06$
1y%
1|%
#170
0Q"
0R"
b1 :$
b1 Z$
0y%
#171
b100 =$
b10 >$
b11 t$
b100 y$
b10 z$
b1011 4%
0m%
#175
1Q"
1R"
1y%
#180
0Q"
0R"
0y%
#181
b0 :$
b1000 =$
b11 >$
b0 Z$
b1000 y$
b11 z$
b1100 4%
#185
1Q"
1R"
1y%
#190
0Q"
0R"
0y%
#191
b110 7$
b11 :$
1;$
b1 =$
b0 >$
b11 Y$
b11 Z$
1[$
b110 q$
b1 y$
b0 z$
b1101 4%
b100 _%
b100 a%
b11 b%
b11 c%
0|%
#195
1Q"
1R"
16$
1y%
1|%
#200
0Q"
0R"
0y%
#201
b0 :$
0;$
b10 =$
b1 >$
b0 Z$
0[$
b10 y$
b1 z$
b1110 4%
1m%
0|%
#205
1Q"
1R"
06$
1y%
1|%
#210
0Q"
0R"
b1 :$
b1 Z$
0y%
#211
b100 =$
b10 >$
b100 t$
b100 y$
b10 z$
b1111 4%
0m%
#215
1Q"
1R"
1y%
#220
0Q"
0R"
0y%
#221
b0 :$
b1000 =$
b11 >$
b0 Z$
b1000 y$
b11 z$
b10000 4%
#225
1Q"
1R"
1y%
#230
0Q"
0R"
0y%
#231
b1000 7$
b11 :$
1;$
b1 =$
b0 >$
b100 Y$
b11 Z$
1[$
b1000 q$
b1 y$
b0 z$
b10001 4%
b101 _%
b101 a%
b100 b%
b100 c%
0|%
#235
1Q"
1R"
16$
1y%
1|%
